digraph {
    control [shape=box, label="V.17 control logic"];
    audio [label="Input audio (8 kHz)"];
    mixer [shape=box, label="Carrier mixer (1800 Hz)"];
    interpolator [shape=box, label="Interpolator (x12)"];
    filter [shape=box, label="Multipurpose filter"];
    decimation [shape=box, label="Decimation to 4800 Hz"];
    timing [shape=box, label="Gardner timing error detection"];
    constellation [shape=box, label="Constellation demapper"];
    rrc [shape=box, label="RRC tap generator, beta=0.35"];
    nlms [shape=box, label="Equalizer tap correction (NLMS)"];
    trellis [shape=box, label="Trellis decoder"];
    diffdec [shape=box, label="Differential decoder"];
    descrambler [shape=box, label="Descrambler"];
    gate [shape=box, label="Data pass-through"];
    output [label="Output data"];
    debug [label="Debug output"];
    scaling [shape=box, label="Scaling"];
    sampconv [shape=box, label="int16 to double"];

    audio -> sampconv [label="8 kHz int16"];
    sampconv -> mixer [label="8 kHz double"];
    mixer -> interpolator [label="8 kHz complex"];
    interpolator -> filter -> scaling -> decimation [label="96 kHz complex"];
    decimation -> timing [label="symbols and midpoints (4800 Hz complex)"];
    decimation -> constellation [label="symbols (2400 Hz complex)"];
    timing -> control [label="timing error"];
    control -> nlms [label="training?"];
    control -> rrc [label="initialize filter"];
    control -> decimation [label="sampling phase"];
    control -> mixer [label="phase"];
    control -> scaling [label="amplitude level"];
    nlms -> filter [dir=both, label="taps"];
    rrc -> filter [label="taps"];
    control -> constellation [label="select constellation"];
    control -> trellis [label="select constellation"];
    constellation -> control [label="amplitude & phase error"];
    constellation -> nlms [label="training symbols"];
    constellation -> trellis -> diffdec [label="data symbols"];
    diffdec -> descrambler -> gate -> output [label="bits"];
    control -> gate [label="data segment?"];

    control -> debug [label="debug data"];
    trellis -> debug [label="best path metric"];
}
